<svg width="24" height="24" viewBox="0 0 24 24" fill="none" xmlns="http://www.w3.org/2000/svg">
<path d="M8 8C8 7.20435 8.36875 6.44129 9.02513 5.87868C9.6815 5.31607 10.5717 5 11.5 5H12.5C13.4283 5 14.3185 5.31607 14.9749 5.87868C15.6313 6.44129 16 7.20435 16 8C16.0368 8.64925 15.8617 9.2929 15.501 9.83398C15.1402 10.3751 14.6135 10.7843 14 11C13.3865 11.2876 12.8598 11.8333 12.499 12.5547C12.1383 13.2761 11.9632 14.1343 12 15" stroke="#0F172A" stroke-width="2" stroke-linecap="round" stroke-linejoin="round"/>
<path d="M12 19V19.01" stroke="#0F172A" stroke-width="2" stroke-linecap="round" stroke-linejoin="round"/>
</svg>
