<svg width="24" height="24" viewBox="0 0 24 24" fill="none" xmlns="http://www.w3.org/2000/svg">
<path d="M12 17.75L5.82799 20.995L7.00699 14.122L2.00699 9.255L8.90699 8.255L11.993 2.002L15.079 8.255L21.979 9.255L16.979 14.122L18.158 20.995L12 17.75Z" stroke="#0F172A" stroke-width="1.5" stroke-linecap="round" stroke-linejoin="round"/>
</svg>
